1capplegate
2020Science
50cent
@astroengine
@A_Osborn
aaronpaul_8
AbbyWambach
ActuallyNPH
adamlevine
AdamSchefter
aetiology
AFBR
afneil
agnezmo
AlecMuffett
alexmorgan13
alfranken
algore
aliciakeys
alikrieger
Alyssa_Milano
andersoncooper
AnnaKendrick47
apacheman
aplusk
ArianaGrande
ArianFoster
arielhelwani
AshleyKMayo
ashleytisdale
AtoBoldon
attilacsordas
Atul_Gawande
AvrilLavigne
BadAstronomer
bainesy1969
bbclaurak
BenchFly
benfenton
BethRigby
bflay
BigSean
billbarnwell
BioInfo
BMcCarthy32
BobMetcalfe
BobVila
BraidenHT
Browntideguy
BruceFeldmanCFB
bruce_arthur
BrunoBrussels
bubbawatson
Buccigross
BuddyRoemer
Buster_ESPN
CameronNeylon
carlyraejepsen
CaroWozniacki
celebrityhottub
cells_nnm
cephalopodcast
cesarmillan
channingtatum
charliesheen
CherLloyd
Cherylofficial
chrisbrown
ChrisWarcraft
ciara
Claire_Phipps
CodySimpson
coldplay
CoryBooker
cupton1
DaMarcusBeasley
danlevitin
dannymasterson
danrafaelespn
davidguetta
DavidLammy
daxshepard1
dcsportsbog
ddenissmith
ddlovato
ddockett
DENISE_RICHARDS
DickieV
DjokerNole
DouglasCarswell
DownGoesBrown
DPJHodges
drbrian
drdrew
DrewFromTV
DrLucyRogers
DrMRFrancis
DrVes
Earth2larryo
eddieizzard
edsbs
edsheeran
egonwillighagen
ehasselbeck
elakdawalla
ElizabethBanks
elizadushku
Emeril
ESPNSteinLine
EvaLongoria
expeditionlog
faisalislam
FanSince09
feliciaday
flyingjenny
fortnow
frankiemuniz
GabbyGiffords
GavinNewsom
geomblog
georgeeaton
GlobeChadFinn
GoodmanESPN
GovernorPerry
GovGaryJohnson
GovMikeHuckabee
GovPenceIN
grabs40
Grahamhiscott
greggrunberg
HansRosling
Harry_Styles
HeatherOReilly
HEELZiggler
henrywinter
HillaryClinton
iainmacintosh
iainmacwhirter
IAMQUEENLATIFAH
iamwill
IanDunt
IMKristenBell
InTheBleachers
InvaderXan
jamesrbuk
JamieFonzarelli
jamieoliver
JamieRoss7
jason_mraz
JayBilas
JayGlazer
JayMewes
JeffLast
jeff_gluck
jemelehill
JeremiahOsGo
jeremypiven
JerryBrownGov
jessicaalba
JessieJ
jessphillips
jgold85
JimCarrey
jimmyfallon
jimwaterson
JLo
joejonas
joelmchale
johncusack
johnlegend
JohnRentoul
JohnStamos
JolyonMaugham
JoyVBehar
jtimberlake
JudahWorldChamp
JuliaGillard
JuliaHB1
JulieFoudy
justdemi
justinbieber
KamalaHarris
katebevan
katienolan
katyperry
KDTrey5
kejames
KELLYROWLAND
kelly_clarkson
Ken_Rosenthal
keselowski
KevinHarvick
KevinSpacey
Kevin_Maguire
KingJames
kingsthings
kirstiealley
Kubke
Kulinowski
KVanValkenburg
kzelnio
LabSpaces
LAKings
LeaskyHT
lemire
lenadunham
levarburton
LilyAllen
llcoolj
LMFAO
LouiseMensch
Louis_Tomlinson
Ludacris
Luke5SOS
LukeBryanOnline
maggieNYT
MariahCarey
MarleeMatlin
MarthaStewart
MartinMcGinley
maryjblige
McIlroyRory
meganmurp
MenInBlazers
MhairiBlack
MichaelLCrick
MichelleDBeadle
MikePereira
MikeTyson
MileyCyrus
MirandaCosgrove
miss_mcinerney
mocost
montanertwiter
montie
moonfrye
MoveTheSticks
mPinoe
MrHarryCole
MrKRudd
MrMichaelLee
mrwdawson
mtobis
NadineDorries
neiltyson
newtgingrich
NeYoCompound
NFLfootballinfo
NiallOfficial
NickCannon
nickjonas
normmacdonald
notthefakeSVP
Number10gov
officialjaden
OGTedBerg
OldHossRadbourn
oliviamunn
ollyofficial
onedirection
Oprah
orbitingfrog
Ourand_SBJ
outsports
OwenJones84
PatrickStrud
Paula_Deen
paullewismoney
paulmasonnews
paulwaugh
peeweeherman
PeterBale
peterfacinelli
PFTCommenter
phalpern
pharrell
phylogenomics
Pink
Pitbull
plutokiller
professor_astro
profvrr
Rachel__Nichols
rainnwilson
realDonaldTrump
RealHughJackman
RealRonHoward
RedHourBen
Reillymj
Revkin
RevRunWisdom
RichardDawkins
RichardWiseman
RickSantorum
ricky_martin
rihanna
rlanzara
robfordmancs
RondaRousey
rosemcgowan
RoyalFamily
RSherman_25
RuthDavidsonMSP
RyanSeacrest
SamCoatesTimes
samgadjones
SarahBrownUK
Schwarzenegger
scicurious
sciencegoddess
seanflanery
SeanKingston
seanmcarroll
selenagomez
SenJohnMcCain
SenSanders
SenScottBrown
shanerichmond
ShannonElizab
SHAQ
ShawnMendes
SherriEShepherd
ShippersUnbound
simonnread
SimplyAJ10
skyponderer
SnoopDogg
SofiaVergara
SophyRidgeSky
souljaboy
SpeakerRyan
SportsLawGuy
stellacreasy
StephenAtHome
StephenCurry30
stephenkb
Stephen_Curry
sunny_hundal
suttonnick
sydneyleroux
taylorswift13
TennisReporters
ThadMcCotter
ThatKevinSmith
TheChristinaKim
TheEllenShow
TheGMcConnachie
THEHermanCain
TheRealStanLee
TheReal_Jlh
TheRue
Tip
toadmeister
TomFelton
tom_watson
TonyRobbins
TreySongz
TSNBobMcKenzie
TwistedBacteria
Tyga
tyrabanks
UKCoachCalipari
Usher
vaughanbell
WhoopiGoldberg
WilliamShatner
wilw
wizkhalifa
wyshynski
youngvulgarian
_SidVerma