id,text,created_at,like,retweet,attn_factor,elapsedtime
899647503859032065,https://t.co/p2DyY0e2M3,2017-08-21 15:00:54,224866,82116,153491.0,-2941200
900010249163112450,https://t.co/12Rfi8bso4,2017-08-22 15:02:19,169239,55495,112367.0,-3027600
900399489126629377,https://t.co/xMBBukfZPs,2017-08-23 16:49:01,404134,176336,290235.0,-3114000
900357555289034752,https://t.co/xqhhDZ0y7c,2017-08-23 14:02:23,184607,60796,122701.5,-3114000
900923703424413696,"New single #LookWhatYouMadeMeDo out now. Pre-order #reputation: https://t.co/oExj2XFGvH 

Merch &amp; ticket info at… https://t.co/YFctYldpic",2017-08-25 03:32:03,177806,74091,125948.5,-3200400
901050847043497984,"Official #LWYMMDvideo world premiere. 
Sunday 8/27 at the @vmas https://t.co/tjAxr8qdsY",2017-08-25 11:57:17,168719,60960,114839.5,-3286800
901998494214434818,The #LWYMMDvideo is out now - https://t.co/6ajIH45CnX,2017-08-28 02:42:53,151213,56832,104022.5,-3459600
904314458079727620,A second glance into #reputation...ready for it? https://t.co/e495xJi3M8 https://t.co/HF35pISj2N,2017-09-03 12:05:42,122618,42523,82570.5,-4064400
905810889693159425,Some real tough questions I had for Olivia. https://t.co/VeLIN3iYRY,2017-09-07 15:11:59,141954,40383,91168.5,-4410000
905811133210210310,😃☎️ @ATT https://t.co/I6mCnlan8g https://t.co/mjjELwz7L8,2017-09-07 15:12:57,96101,30634,63367.5,-4410000
905810715570835456,Such a taxing day when they're like 'eat some cookie dough' and you're like 'ok I'll make this sacrifice for my art… https://t.co/oddvslRGXe,2017-09-07 15:11:18,85729,24906,55317.5,-4410000
911330863769628672,😍😍😍 https://t.co/oIAruxj8ZH,2017-09-22 20:46:24,52797,12106,32451.5,-5706000
911331426926198784,RT @TheEllenShow: #LookWhatYouMadeMeDo @TaylorSwift13 https://t.co/8rUDDtwbdH,2017-09-22 20:48:38,0,33723,16861.5,-5706000
911331955773464576,"RT @RollingStone: All 115 of Taylor Swift's songs, ranked https://t.co/mdD4f04rQ8 https://t.co/Bm317v6fib",2017-09-22 20:50:44,0,8127,4063.5,-5706000
913774451862450182,https://t.co/EIXRjnE9Gw,2017-09-29 14:36:21,63661,19456,41558.5,-6310800
914863569031827456,There are no words to express the helplessness and sorrow my broken heart feels for the victims in Vegas and their families.,2017-10-02 14:44:06,288189,63289,175739.0,-6570000
